<?xml version="1.0" encoding="UTF-8" standalone="no"?>
<svg
   xmlns:dc="http://purl.org/dc/elements/1.1/"
   xmlns:cc="http://creativecommons.org/ns#"
   xmlns:rdf="http://www.w3.org/1999/02/22-rdf-syntax-ns#"
   xmlns:svg="http://www.w3.org/2000/svg"
   xmlns="http://www.w3.org/2000/svg"
   xmlns:sodipodi="http://sodipodi.sourceforge.net/DTD/sodipodi-0.dtd"
   xmlns:inkscape="http://www.inkscape.org/namespaces/inkscape"
   version="1.1"
   id="svg1"
   width="16"
   height="16"
   viewBox="0 0 16 16"
   sodipodi:docname="edit-paste-hight-separatly-symbolic.svg"
   inkscape:version="1.1-dev (3d47766, 2020-01-22)">
  <metadata
     id="metadata7580">
    <rdf:RDF>
      <cc:Work
         rdf:about="">
        <dc:format>image/svg+xml</dc:format>
        <dc:type
           rdf:resource="http://purl.org/dc/dcmitype/StillImage" />
        <dc:title></dc:title>
      </cc:Work>
    </rdf:RDF>
  </metadata>
  <defs
     id="defs7578" />

  <sodipodi:namedview
     objecttolerance="10"
     gridtolerance="10"
     guidetolerance="10"
     id="namedview"
     showgrid="true"
     inkscape:zoom="32"
     inkscape:cx="4.9166462"
     inkscape:cy="8.3256211"
     inkscape:window-width="1296"
     inkscape:window-height="890"
     inkscape:window-x="65"
     inkscape:window-y="-6"
     inkscape:window-maximized="1"
     inkscape:current-layer="edit-paste-style"
     inkscape:document-rotation="0"
     inkscape:snap-bbox="true"
     inkscape:object-paths="true"
     inkscape:snap-intersection-paths="true"
     inkscape:snap-smooth-nodes="true"
     inkscape:snap-midpoints="true">
    <inkscape:grid
       type="xygrid"
       id="grid" />
  </sodipodi:namedview>
  <g
     transform="matrix(1,0,0,1.000004,-45.070339,-567.36441)"
     inkscape:label="00011"
     id="edit-paste-style">
    <path
       inkscape:connector-curvature="0"
       id="rect27708"
       d="m 45.070339,567.41998 h 16 v 15.93773 h -16 z"
       style="opacity:0;fill:none" />
    <path
       inkscape:connector-curvature="0"
       id="rect27710"
       d="m 50.600669,567.36218 h 4.93934 c 0.293803,0 0.53033,0.23653 0.53033,0.53033 v 1.92767 c 0,0.2938 -0.236527,0.53033 -0.53033,0.53033 h -4.93934 c -0.293803,0 -0.53033,-0.23653 -0.53033,-0.53033 v -1.92767 c 0,-0.2938 0.236527,-0.53033 0.53033,-0.53033 z"
       style="opacity:1"
       sodipodi:nodetypes="sssssssss" />
    <path
       inkscape:connector-curvature="0"
       id="path27714"
       d="m 46.710964,568.36214 c -0.398732,0 -0.640625,0.25111 -0.640625,0.58756 v 13.8833 c 0,0.47319 0.318397,0.529 0.523411,0.529 l 12.945339,8e-5 c 0.2938,0 0.53125,-0.29868 0.53125,-0.59138 v -13.821 c 0,-0.2926 -0.229636,-0.58756 -0.660156,-0.58756 h -2.339844 v 1.01157 h 1.400982 c 0.398761,0 0.599018,0.37893 0.599018,0.69915 v 11.70174 c 0,0.2927 -0.23745,0.5276 -0.53125,0.5292 -0.249948,10e-4 -10.697256,0.0623 -10.945339,0.0623 -0.361556,0 -0.523411,-0.2942 -0.523411,-0.5291 v -11.9533 c 0,-0.36815 0.2792,-0.529 0.460911,-0.529 h 1.539089 v -0.9961"
       style="opacity:1"
       sodipodi:nodetypes="csssssssccsssssssscc" />
    <g
       style="stroke-width:1.6"
       transform="matrix(0.62499975,0,0,0.62499725,-170.05457,222.38729)"
       id="node-transform"
       inkscape:label="00161">
      <g
         style="stroke-width:0.7"
         transform="matrix(2.2857141,0,0,2.2857141,-748.14275,432.64793)"
         id="g6213">
        <path
           sodipodi:nodetypes="ccccccccccc"
           style="stroke-width:0.7"
           inkscape:connector-curvature="0"
           id="path5786"
           d="m 483.52658,55.026589 -1.74998,2.04681 h 1.04999 v 2.8 h -1.04999 l 1.74999,2.1 1.74998,-2.1 h -1.04999 v -2.8 l 1.04999,10e-6 z" />
      </g>
      <path
         inkscape:connector-curvature="0"
         id="rect19206"
         d="m 349,46 h 16 v 16 h -16 z"
         style="opacity:0;stroke-width:1.6"
         transform="translate(0,512.3622)" />
    </g>
    <rect
       
       y="571.36212"
       x="56.070339"
       height="1.999992"
       width="2"
       id="rect5973"
       style="opacity:0.999;fill-opacity:1;stroke:none;stroke-width:0.831517;stroke-linejoin:round;paint-order:stroke fill markers" />
    <rect
       
       y="571.36212"
       x="48.070339"
       height="1.999992"
       width="2"
       id="rect5975"
       style="opacity:0.999;fill-opacity:1;stroke:none;stroke-width:0.831517;stroke-linejoin:round;paint-order:stroke fill markers" />
    <rect
       
       y="579.36212"
       x="56.070339"
       height="1.999992"
       width="2"
       id="rect5977"
       style="opacity:0.999;fill-opacity:1;stroke:none;stroke-width:0.831517;stroke-linejoin:round;paint-order:stroke fill markers" />
    <rect
       style="opacity:0.999;fill-opacity:1;stroke:none;stroke-width:0.831517;stroke-linejoin:round;paint-order:stroke fill markers"
       id="rect5971"
       width="2"
       height="1.999992"
       x="48.070339"
       y="579.36212"
        />
  </g>
</svg>
